<svg width="1124" height="451" viewBox="0 0 1124 451" fill="none" xmlns="http://www.w3.org/2000/svg">
<path d="M562 5.00005L1118.56 5" stroke="#FF6666" stroke-width="10" stroke-miterlimit="10" stroke-linecap="round" stroke-linejoin="round"/>
<path d="M1118.56 5.00023C1118.56 265.795 889.117 479.183 599.042 495.843" stroke="#FF6666" stroke-width="10" stroke-miterlimit="10" stroke-linecap="round" stroke-linejoin="round"/>
<path d="M562.471 5.95409V374.875" stroke="#FF6666" stroke-width="10" stroke-miterlimit="10" stroke-linecap="round" stroke-linejoin="round"/>
<path d="M562.464 374.882C562.464 510.715 686.949 620.827 840.512 620.827C994.075 620.827 1118.56 510.715 1118.56 374.882" stroke="#FF6666" stroke-width="10" stroke-miterlimit="10" stroke-linecap="round" stroke-linejoin="round"/>
<path d="M979.54 5.96132C749.195 5.96132 562.464 171.133 562.464 374.883" stroke="#FF6666" stroke-width="10" stroke-miterlimit="10" stroke-linecap="round" stroke-linejoin="round"/>
<path d="M1118.56 5.96132V377.263" stroke="#FF6666" stroke-width="10" stroke-miterlimit="10" stroke-linecap="round" stroke-linejoin="round"/>
<path d="M562.001 178.173L5.44069 178.173" stroke="#FF6666" stroke-width="10" stroke-miterlimit="10" stroke-linecap="round" stroke-linejoin="round"/>
<path d="M5.44069 178.173C5.44069 438.967 234.884 652.355 524.958 669.016" stroke="#FF6666" stroke-width="10" stroke-miterlimit="10" stroke-linecap="round" stroke-linejoin="round"/>
<path d="M561.529 179.127V548.048" stroke="#FF6666" stroke-width="10" stroke-miterlimit="10" stroke-linecap="round" stroke-linejoin="round"/>
<path d="M144.46 179.134C374.805 179.134 561.537 344.306 561.537 548.055" stroke="#FF6666" stroke-width="10" stroke-miterlimit="10" stroke-linecap="round" stroke-linejoin="round"/>
<path d="M5.4411 179.134V550.436" stroke="#FF6666" stroke-width="10" stroke-miterlimit="10" stroke-linecap="round" stroke-linejoin="round"/>
</svg>
