<svg width="212" height="66" viewBox="0 0 212 66" fill="none" xmlns="http://www.w3.org/2000/svg">
<path d="M54 1.86003C53.9987 1.61445 53.949 1.37154 53.8538 1.14517C53.7586 0.918788 53.6198 0.713376 53.4452 0.540658C53.2706 0.367941 53.0638 0.2313 52.8364 0.138538C52.609 0.0457764 52.3656 -0.00128985 52.12 2.68829e-05H1.88C1.63443 -0.00128985 1.391 0.0457764 1.16362 0.138538C0.936234 0.2313 0.729348 0.367941 0.554774 0.540658C0.380199 0.713376 0.241353 0.918788 0.146165 1.14517C0.0509767 1.37154 0.00130971 1.61445 0 1.86003C0 1.86003 0 1.86003 0 1.86003V39.27C0 46.4309 2.84463 53.2984 7.90812 58.3619C12.9716 63.4254 19.8392 66.27 27 66.27C34.1608 66.27 41.0284 63.4254 46.0919 58.3619C51.1554 53.2984 54 46.4309 54 39.27V1.86003ZM3.75 39.27C3.80819 29.8227 7.61085 20.7841 14.324 14.1366C21.0371 7.48913 30.1126 3.77543 39.56 3.81003C39.7542 3.80765 39.9466 3.77388 40.13 3.71003H50.2C49.6732 15.3876 44.9198 26.4756 36.825 34.9089C28.7303 43.3421 17.8462 48.5455 6.2 49.55C4.5856 46.364 3.74617 42.8418 3.75 39.27ZM3.75 3.71003H23C14.566 7.57317 7.75397 14.2719 3.75 22.64V3.71003ZM50.25 39.27C50.1928 44.1259 48.6192 48.8424 45.7493 52.7598C42.8794 56.6772 38.8567 59.5996 34.2441 61.118C29.6314 62.6365 24.6594 62.6751 20.0237 61.2285C15.388 59.7819 11.3204 56.9224 8.39 53.05C17.5795 51.911 26.3002 48.3466 33.6567 42.7229C41.0132 37.0992 46.7403 29.6189 50.25 21.05V39.27Z" fill="#E26060"/>
<path d="M78.72 55.46H75V44.4H78.74C81.96 44.4 83.87 46.68 83.87 49.93C83.87 53.18 81.94 55.46 78.72 55.46ZM78.72 45.55H76.21V54.31H78.67C81.13 54.31 82.56 52.51 82.56 49.93C82.56 47.35 81.13 45.55 78.67 45.55H78.72Z" fill="#15293F"/>
<path d="M88.92 47.49C90.92 47.49 92.33 48.83 92.33 51.49C92.338 51.6399 92.338 51.7901 92.33 51.94H86.57C86.5483 52.2645 86.5909 52.5901 86.6954 52.8981C86.7998 53.2061 86.9641 53.4905 87.1787 53.7348C87.3933 53.9792 87.6541 54.1788 87.9461 54.3221C88.238 54.4654 88.5554 54.5496 88.88 54.57C89.3527 54.6136 89.8256 54.4877 90.214 54.2147C90.6023 53.9418 90.881 53.5395 91 53.08H92.2C92.0594 53.8301 91.647 54.502 91.0418 54.967C90.4365 55.432 89.6811 55.6574 88.92 55.6C86.92 55.6 85.39 54.1 85.39 51.54C85.39 48.98 86.86 47.49 88.92 47.49ZM91.14 51C91.1707 50.6922 91.1367 50.3814 91.0402 50.0875C90.9437 49.7936 90.7868 49.5231 90.5797 49.2934C90.3726 49.0636 90.1197 48.8797 89.8373 48.7534C89.555 48.6271 89.2493 48.5613 88.94 48.56C87.68 48.56 86.78 49.43 86.58 51H91.14Z" fill="#15293F"/>
<path d="M97 47.49C98.49 47.49 99.92 48.26 100 49.88H98.81C98.81 48.98 98.05 48.51 97.03 48.51C96.01 48.51 95.3 49 95.3 49.72C95.3 50.44 95.73 50.65 96.53 50.82L98.07 51.14C99.43 51.43 100.13 52.14 100.13 53.28C100.13 54.63 98.98 55.6 97.13 55.6C95.28 55.6 93.97 54.6 93.95 53.08H95.14C95.2 53.99 95.87 54.58 97.14 54.58C98.41 54.58 99 54 99 53.32C99 52.64 98.58 52.4 97.77 52.22L96.24 51.91C94.87 51.62 94.17 50.91 94.17 49.77C94.13 48.39 95.36 47.49 97 47.49Z" fill="#15293F"/>
<path d="M102.07 44.72H103.46V46.17H102.07V44.72ZM103.34 47.64V55.46H102.2V47.64H103.34Z" fill="#15293F"/>
<path d="M112.21 55.2C112.21 57.32 110.85 58.4 108.83 58.4C106.81 58.4 105.63 57.4 105.6 55.97H106.78C106.86 56.97 107.68 57.37 108.78 57.37C109.079 57.4121 109.384 57.3859 109.672 57.2933C109.96 57.2007 110.223 57.0441 110.441 56.8352C110.659 56.6264 110.828 56.3707 110.933 56.0875C111.039 55.8043 111.079 55.5008 111.05 55.2V54.12C110.775 54.4735 110.421 54.7579 110.016 54.9506C109.612 55.1433 109.168 55.2389 108.72 55.23C107.01 55.23 105.34 53.91 105.34 51.4C105.34 48.89 106.94 47.49 108.68 47.49C109.15 47.477 109.617 47.5808 110.037 47.7919C110.458 48.003 110.819 48.315 111.09 48.7V47.64H112.19L112.21 55.2ZM108.85 54.2C110.37 54.2 111.17 53.02 111.17 51.36C111.17 49.7 110.37 48.53 108.85 48.53C107.33 48.53 106.54 49.72 106.54 51.36C106.54 53 107.35 54.2 108.85 54.2Z" fill="#15293F"/>
<path d="M114.72 55.46V47.64H115.82V48.82C116.081 48.3916 116.453 48.0418 116.897 47.8076C117.34 47.5735 117.839 47.4637 118.34 47.49C120.03 47.49 120.98 48.66 120.98 50.49V55.41H119.84V50.79C119.84 49.13 119.13 48.54 118.05 48.54C117.735 48.5504 117.426 48.6259 117.141 48.7619C116.857 48.8979 116.604 49.0913 116.398 49.33C116.192 49.5686 116.038 49.8474 115.946 50.1486C115.853 50.4498 115.824 50.767 115.86 51.08V55.46H114.72Z" fill="#15293F"/>
<path d="M82.08 22.41V31.53C82.0486 31.7042 82.0699 31.8839 82.1411 32.046C82.2124 32.2081 82.3304 32.3453 82.48 32.44L85.11 34.79V34.87H72V34.79L74.63 32.4C74.7611 32.2908 74.8622 32.1498 74.9234 31.9905C74.9847 31.8312 75.0042 31.6589 74.98 31.49V11.54C75.0042 11.371 74.9847 11.1987 74.9234 11.0394C74.8622 10.8801 74.7611 10.7392 74.63 10.63L72 8.23997V8.15997H87.15C91.97 8.15997 96.25 10.02 96.25 15C96.25 19.06 93.07 21.57 87.66 22L92.72 23.44L96.29 31.65C96.5244 32.2071 96.8877 32.7006 97.35 33.09L99 34.79V34.87H89.85L85 22.86C84.84 22.56 84.72 22.41 84.13 22.41H82.08ZM82.08 21.65H84.08C86.83 21.65 88.64 19.86 88.64 15.42C88.64 10.82 86.99 8.91997 84.24 8.91997H82.79C82.2 8.91997 82.08 8.99997 82.08 9.63997V21.65Z" fill="#15293F"/>
<path d="M99 25.45C99 19.06 103.12 15.76 109.32 15.76C115.52 15.76 119.67 19.03 119.67 25.48C119.67 31.93 115.52 35.17 109.32 35.17C103.12 35.17 99 31.9 99 25.45ZM106.14 25.45C106.14 32.78 107.35 34.45 109.32 34.45C111.29 34.45 112.49 32.81 112.49 25.45C112.49 18.09 111.28 16.45 109.32 16.45C107.36 16.45 106.14 18.08 106.14 25.45Z" fill="#15293F"/>
<path d="M128.46 28.37L125.8 27.16C123.64 26.16 121.99 24.46 121.99 21.76C121.99 18.15 125.05 15.76 129.99 15.76C132.329 15.7627 134.656 16.0994 136.9 16.76L134.7 22.27H134.62L131.6 17C131.37 16.62 131.25 16.43 130.7 16.43H130.15C128.42 16.43 126.97 17.31 126.97 19.09C126.97 20.87 128.27 21.56 130.58 22.55L133.09 23.61C135.53 24.61 137.45 25.93 137.45 28.86C137.45 32.96 133.88 35.16 128.66 35.16C126.208 35.1457 123.773 34.7544 121.44 34L123.6 28.12H123.68L126.82 34C126.887 34.159 127.002 34.2929 127.149 34.3826C127.296 34.4724 127.468 34.5135 127.64 34.5H128.54C130.82 34.5 132.23 33.36 132.23 31.72C132.23 30.08 131 29.51 128.46 28.37Z" fill="#15293F"/>
<path d="M145.89 24.61V24.69C145.89 29.63 148.47 31.69 151.5 31.69C152.731 31.7474 153.953 31.4475 155.017 30.8265C156.082 30.2055 156.944 29.2899 157.5 28.19H157.58C156.58 32.98 153.5 35.19 148.91 35.19C143.91 35.19 139.29 32.3 139.29 25.62C139.29 18.62 143.92 15.78 149.14 15.78C153.3 15.78 157.74 17.68 157.74 23.78C157.74 23.9 157.74 24.16 157.74 24.62L145.89 24.61ZM145.89 23.93H151.65C151.65 23.43 151.65 22.93 151.65 22.79C151.65 17.79 150.59 16.48 148.98 16.48C147.06 16.48 146 18.42 145.89 23.93Z" fill="#15293F"/>
<path d="M167.35 32.13C167.318 32.3032 167.337 32.4822 167.407 32.6442C167.476 32.8062 167.592 32.944 167.74 33.04L169.66 34.79V34.87H158.66V34.79L160.6 33C160.736 32.8948 160.84 32.7543 160.902 32.5939C160.964 32.4335 160.98 32.2592 160.95 32.09V10.93C160.981 10.7548 160.966 10.5744 160.904 10.4074C160.843 10.2404 160.738 10.0929 160.6 9.97997L158.68 8.23997V8.15997L167.35 7.15997V32.13Z" fill="#15293F"/>
<path d="M187.87 24.8L187.63 30.19C187.55 31.68 187.91 32.4 188.69 32.4C188.922 32.4106 189.151 32.3502 189.348 32.2269C189.544 32.1036 189.699 31.9233 189.79 31.71H189.87C189.867 32.1837 189.761 32.6512 189.56 33.08C189.186 33.7609 188.625 34.3199 187.942 34.6905C187.259 35.061 186.485 35.2275 185.71 35.17C183.47 35.17 181.55 33.88 181.43 31.49C181.047 32.5893 180.324 33.5382 179.365 34.1997C178.407 34.8612 177.264 35.201 176.1 35.17C175.388 35.2091 174.675 35.0975 174.009 34.8423C173.342 34.5872 172.737 34.1943 172.233 33.6893C171.729 33.1843 171.338 32.5787 171.084 31.9119C170.83 31.2452 170.72 30.5323 170.76 29.82C170.76 26.05 174.14 24.08 177.35 24.08C178.805 23.9916 180.254 24.3398 181.51 25.08L181.59 21.02V20.83C181.59 18.21 180.77 16.46 178.73 16.46C177.94 16.46 177.9 16.46 177.67 16.92L174.49 22.61H174.41L171.94 17.18C174.484 16.2731 177.159 15.7867 179.86 15.74C182.49 15.74 184.53 16.19 185.95 17.49C187.2 18.63 187.95 20.49 187.95 23.41C187.91 23.81 187.87 24.69 187.87 24.8ZM176.87 29.17C176.87 31.26 177.87 32.4 179.19 32.4C179.64 32.37 180.077 32.2338 180.465 32.0026C180.852 31.7715 181.18 31.4519 181.42 31.07L181.5 25.52C181.031 25.3709 180.542 25.2967 180.05 25.3C178 25.26 176.88 27 176.88 29.17H176.87Z" fill="#15293F"/>
<path d="M198.5 19.94C199.76 17.24 201.76 15.76 204.62 15.76C209.17 15.76 212 19.56 212 25.29C212 31.02 208.47 35.17 203.21 35.17C202.295 35.2311 201.378 35.0776 200.532 34.7217C199.687 34.3658 198.936 33.8173 198.34 33.12L192.15 35.17H192.07V10.93C192.1 10.7539 192.083 10.5729 192.02 10.4059C191.956 10.2388 191.849 10.0917 191.71 9.97997L189.83 8.23997V8.15997L198.5 7.15997V19.94ZM198.5 20.43V32.7C199.119 33.2698 199.939 33.5717 200.78 33.54C203.21 33.54 205.21 31.9 205.21 25.48C205.21 20.62 203.68 18.8 201.44 18.8C200.854 18.812 200.28 18.9667 199.768 19.2507C199.256 19.5348 198.82 19.9396 198.5 20.43Z" fill="#15293F"/>
</svg>
