<svg width="212" height="66" viewBox="0 0 212 66" fill="none" xmlns="http://www.w3.org/2000/svg">
<path d="M52.16 -1.09432e-05H1.84C1.59763 -0.00268938 1.35716 0.0430745 1.13271 0.134595C0.908261 0.226115 0.704355 0.361547 0.532959 0.532944C0.361563 0.70434 0.22613 0.908246 0.13461 1.13269C0.0430898 1.35714 -0.00267412 1.59761 4.3156e-06 1.83999V39.24C4.3156e-06 46.4008 2.84464 53.2684 7.90812 58.3319C12.9716 63.3954 19.8392 66.24 27 66.24C34.1609 66.24 41.0284 63.3954 46.0919 58.3319C51.1554 53.2684 54 46.4008 54 39.24V1.81999C54 1.57929 53.9523 1.34098 53.8596 1.11885C53.7669 0.896728 53.631 0.695198 53.4599 0.525932C53.2888 0.356665 53.0858 0.223024 52.8626 0.132746C52.6395 0.0424669 52.4007 -0.00265598 52.16 -1.09432e-05ZM3.67 3.69999H27C31.3861 3.70327 35.6825 4.94237 39.3967 7.27525C43.1109 9.60812 46.0926 12.9404 48 16.89C40.9775 13.809 33.3659 12.302 25.6993 12.4748C18.0326 12.6475 10.4966 14.4958 3.62 17.89L3.67 3.69999ZM50.33 3.69999V13.38C47.9623 9.3684 44.6009 6.03456 40.57 3.69999H50.33ZM27 62.36C20.8423 62.3813 14.9277 59.9589 10.5539 55.6245C6.18011 51.2901 3.7044 45.3976 3.67 39.24V22.06C10.7287 18.2151 18.6284 16.1748 26.6661 16.1207C34.7038 16.0666 42.6302 18.0004 49.74 21.75C50.1183 23.4067 50.3095 25.1006 50.31 26.8C50.3051 26.8532 50.3051 26.9068 50.31 26.96V39.24C50.2756 45.3941 47.8027 51.2836 43.4332 55.6174C39.0637 59.9513 33.1542 62.376 27 62.36Z" fill="#E26060"/>
<path d="M80.18 55.22C80.958 55.2363 81.7155 54.9695 82.3115 54.4692C82.9074 53.9689 83.3014 53.2691 83.42 52.5H84.76C84.6341 53.6066 84.0894 54.6231 83.2377 55.3409C82.3861 56.0587 81.292 56.4233 80.18 56.36C77.18 56.36 75.08 54.09 75.08 50.69C75.08 47.29 77.19 45 80.18 45C81.292 44.9366 82.3861 45.3013 83.2377 46.019C84.0894 46.7368 84.6341 47.7533 84.76 48.86H83.42C83.3014 48.0909 82.9074 47.3911 82.3115 46.8908C81.7155 46.3904 80.958 46.1236 80.18 46.14C78.06 46.14 76.41 47.88 76.41 50.66C76.41 53.44 78.06 55.22 80.18 55.22Z" fill="#15293F"/>
<path d="M86.33 52.31C86.33 49.81 87.86 48.31 90.01 48.31C92.16 48.31 93.68 49.85 93.68 52.31C93.68 54.77 92.16 56.31 90.01 56.31C87.86 56.31 86.33 54.81 86.33 52.31ZM92.45 52.31C92.45 50.58 91.6 49.31 90.01 49.31C88.42 49.31 87.56 50.57 87.56 52.31C87.56 54.05 88.42 55.31 90.01 55.31C91.6 55.31 92.45 54 92.45 52.31Z" fill="#15293F"/>
<path d="M95.74 56.18V48.41H96.86V49.59C97.1366 49.1608 97.522 48.8125 97.977 48.5806C98.4319 48.3488 98.9402 48.2416 99.45 48.27C101.17 48.27 102.16 49.43 102.16 51.27V56.16H101V51.55C101 49.9 100.26 49.32 99.16 49.32C98.8436 49.3239 98.5315 49.3937 98.2435 49.5248C97.9555 49.6559 97.698 49.8456 97.4873 50.0817C97.2766 50.3178 97.1173 50.5952 97.0197 50.8961C96.922 51.1971 96.8881 51.5152 96.92 51.83V56.18H95.74Z" fill="#15293F"/>
<path d="M107.37 48.27C108.9 48.27 110.37 49.03 110.37 50.64H109.15C109.15 49.74 108.38 49.28 107.33 49.28C106.28 49.28 105.56 49.79 105.56 50.49C105.56 51.19 105.99 51.4 106.82 51.58L108.39 51.89C109.79 52.18 110.51 52.89 110.51 54.01C110.51 55.36 109.33 56.32 107.38 56.32C105.43 56.32 104.14 55.32 104.12 53.83H105.34C105.4 54.73 106.09 55.31 107.41 55.31C108.73 55.31 109.31 54.77 109.31 54.06C109.31 53.35 108.87 53.14 108.05 52.97L106.48 52.65C105.07 52.37 104.36 51.65 104.36 50.53C104.4 49.16 105.66 48.27 107.37 48.27Z" fill="#15293F"/>
<path d="M118.87 48.41V56.18H117.75V55C117.483 55.424 117.108 55.7691 116.663 55.9994C116.219 56.2297 115.72 56.3369 115.22 56.31C113.54 56.31 112.57 55.16 112.57 53.31V48.41H113.74V53.05C113.74 54.69 114.46 55.28 115.52 55.28C115.833 55.2695 116.14 55.1945 116.422 55.0596C116.705 54.9248 116.956 54.733 117.161 54.4964C117.365 54.2597 117.519 53.9833 117.612 53.6845C117.705 53.3857 117.735 53.0709 117.7 52.76V48.41H118.87Z" fill="#15293F"/>
<path d="M122.62 45.2V56.2H121.45V45.2H122.62Z" fill="#15293F"/>
<path d="M124.36 48.41H125.67V46.41H126.79V48.41H129V49.46H126.82V53.76C126.82 54.69 127.12 55.22 127.88 55.22C128.258 55.2187 128.635 55.1682 129 55.07V56.15C128.572 56.2394 128.137 56.2863 127.7 56.29C126.42 56.29 125.7 55.49 125.7 54V49.46H124.43L124.36 48.41Z" fill="#15293F"/>
<path d="M135.78 56.18V55C135.461 55.4319 135.041 55.7784 134.556 56.0087C134.071 56.239 133.536 56.3459 133 56.32C131.64 56.32 130.43 55.6 130.43 54.13C130.43 52.66 131.55 52.04 132.87 51.8L135.79 51.29V50.88C135.79 49.73 134.94 49.3 133.79 49.3C132.64 49.3 131.95 49.74 131.91 50.64H130.69C130.75 48.97 132.26 48.27 133.79 48.27C135.6 48.27 136.92 49.03 136.92 50.88V56.18H135.78ZM135.78 52.88V52.27L133.13 52.73C132.08 52.92 131.62 53.38 131.62 54.14C131.62 54.9 132.16 55.31 133.14 55.31C133.474 55.3396 133.811 55.2984 134.129 55.189C134.446 55.0797 134.737 54.9047 134.982 54.6754C135.228 54.4461 135.422 54.1678 135.553 53.8584C135.683 53.5491 135.747 53.2157 135.74 52.88H135.78Z" fill="#15293F"/>
<path d="M139.36 56.18V48.41H140.48V49.59C140.757 49.1615 141.143 48.8138 141.598 48.582C142.052 48.3503 142.56 48.2426 143.07 48.27C144.8 48.27 145.78 49.43 145.78 51.27V56.16H144.61V51.55C144.61 49.9 143.88 49.32 142.77 49.32C142.454 49.3239 142.141 49.3937 141.853 49.5248C141.565 49.6559 141.308 49.8456 141.097 50.0817C140.887 50.3178 140.727 50.5952 140.63 50.8961C140.532 51.1971 140.498 51.5152 140.53 51.83V56.18H139.36Z" fill="#15293F"/>
<path d="M151.42 55.28C151.917 55.3114 152.407 55.1502 152.789 54.83C153.171 54.5098 153.414 54.0551 153.47 53.56H154.69C154.66 53.9572 154.551 54.3444 154.37 54.699C154.188 55.0537 153.938 55.3686 153.634 55.6255C153.329 55.8824 152.977 56.0762 152.597 56.1954C152.217 56.3146 151.817 56.357 151.42 56.32C149.27 56.32 147.74 54.79 147.74 52.32C147.74 49.85 149.27 48.32 151.42 48.32C152.205 48.2602 152.983 48.5053 153.592 49.0045C154.201 49.5036 154.594 50.2184 154.69 51H153.47C153.414 50.5049 153.171 50.0502 152.789 49.73C152.407 49.4098 151.917 49.2487 151.42 49.28C149.83 49.28 148.97 50.53 148.97 52.28C148.97 54.03 149.83 55.28 151.42 55.28Z" fill="#15293F"/>
<path d="M157.35 59C157.032 59.0021 156.714 58.9753 156.4 58.92V57.86C156.693 57.9206 156.991 57.9508 157.29 57.95C157.643 57.9865 157.996 57.8898 158.281 57.6789C158.566 57.4679 158.762 57.158 158.83 56.81L158.93 56.56L155.93 48.41H157.19L159.52 55L161.85 48.42H163.08L159.84 57.16C159.707 57.7103 159.385 58.1963 158.93 58.5327C158.474 58.8691 157.915 59.0346 157.35 59Z" fill="#15293F"/>
<path d="M82.08 23.16V32.27C82.0478 32.4457 82.0687 32.627 82.1399 32.7909C82.2112 32.9547 82.3296 33.0936 82.48 33.19L85.11 35.54V35.62H72V35.54L74.63 33.15C74.7611 33.0408 74.8622 32.8998 74.9234 32.7405C74.9847 32.5812 75.0042 32.4089 74.98 32.24V12.24C75.0042 12.071 74.9847 11.8987 74.9234 11.7394C74.8622 11.5801 74.7611 11.4392 74.63 11.33L72 8.99997V8.90997H87.15C91.97 8.90997 96.25 10.77 96.25 15.75C96.25 19.81 93.07 22.32 87.66 22.75V22.83L92.72 24.27L96.29 32.48C96.5244 33.0371 96.8877 33.5306 97.35 33.92L99 35.54V35.62H89.85L85 23.61C84.84 23.31 84.72 23.16 84.13 23.16H82.08ZM82.08 22.4H84.08C86.83 22.4 88.64 20.61 88.64 16.17C88.64 11.57 86.99 9.66997 84.24 9.66997H82.79C82.2 9.66997 82.08 9.73997 82.08 10.39V22.4Z" fill="#15293F"/>
<path d="M99 26.2C99 19.81 103.12 16.51 109.32 16.51C115.52 16.51 119.67 19.77 119.67 26.23C119.67 32.69 115.52 35.92 109.32 35.92C103.12 35.92 99 32.65 99 26.2ZM106.14 26.2C106.14 33.53 107.35 35.2 109.32 35.2C111.29 35.2 112.49 33.56 112.49 26.2C112.49 18.84 111.28 17.2 109.32 17.2C107.36 17.2 106.14 18.82 106.14 26.2Z" fill="#15293F"/>
<path d="M128.46 29.12L125.8 27.9C124.693 27.4962 123.735 26.7635 123.056 25.8001C122.377 24.8368 122.008 23.6887 122 22.51C122 18.9 125.06 16.51 130 16.51C132.339 16.5127 134.666 16.8494 136.91 17.51L134.74 23H134.66L131.6 17.72C131.37 17.34 131.25 17.15 130.7 17.15H130.15C128.42 17.15 126.97 18.02 126.97 19.81C126.97 21.6 128.27 22.28 130.58 23.27L133.09 24.33C135.53 25.33 137.45 26.65 137.45 29.57C137.45 33.68 133.88 35.88 128.66 35.88C126.207 35.8592 123.772 35.4612 121.44 34.7L123.6 28.81H123.68L126.82 34.7C126.887 34.859 127.002 34.9929 127.149 35.0826C127.296 35.1724 127.468 35.2135 127.64 35.2H128.54C130.82 35.2 132.23 34.06 132.23 32.42C132.23 30.78 131 30.26 128.46 29.12Z" fill="#15293F"/>
<path d="M145.89 25.36V25.43C145.89 30.37 148.47 32.43 151.5 32.43C152.731 32.4874 153.953 32.1875 155.017 31.5665C156.082 30.9455 156.944 30.0299 157.5 28.93H157.58C156.58 33.72 153.5 35.93 148.91 35.93C143.91 35.93 139.29 33.04 139.29 26.36C139.29 19.36 143.92 16.52 149.14 16.52C153.3 16.52 157.74 18.42 157.74 24.52C157.74 24.64 157.74 24.9 157.74 25.36H145.89ZM145.89 24.68H151.65C151.65 24.18 151.65 23.68 151.65 23.54C151.65 18.54 150.59 17.23 148.98 17.23C147.06 17.23 146 19.17 145.89 24.68Z" fill="#15293F"/>
<path d="M167.35 32.88C167.318 33.0532 167.337 33.2322 167.407 33.3942C167.476 33.5562 167.592 33.694 167.74 33.79L169.66 35.54V35.62H158.66V35.54L160.58 33.79C160.716 33.6848 160.82 33.5443 160.882 33.3839C160.944 33.2235 160.96 33.0492 160.93 32.88V11.68C160.961 11.5048 160.946 11.3244 160.884 11.1574C160.823 10.9904 160.718 10.8429 160.58 10.73L158.68 8.99997V8.90997L167.35 7.90997V32.88Z" fill="#15293F"/>
<path d="M187.87 25.55L187.63 30.94C187.55 32.43 187.91 33.15 188.69 33.15C188.922 33.1606 189.151 33.1002 189.348 32.9769C189.544 32.8536 189.699 32.6733 189.79 32.46H189.87C189.867 32.9337 189.761 33.4012 189.56 33.83C189.186 34.5109 188.625 35.0699 187.942 35.4405C187.259 35.811 186.485 35.9775 185.71 35.92C183.47 35.92 181.55 34.63 181.43 32.24C181.047 33.3393 180.324 34.2883 179.365 34.9497C178.407 35.6112 177.264 35.951 176.1 35.92C175.387 35.9577 174.674 35.8447 174.008 35.5884C173.342 35.3321 172.737 34.9382 172.233 34.4325C171.729 33.9267 171.338 33.3205 171.084 32.6532C170.83 31.986 170.72 31.2727 170.76 30.56C170.76 26.8 174.14 24.83 177.35 24.83C178.805 24.7416 180.254 25.0898 181.51 25.83L181.59 21.77V21.6C181.59 18.98 180.77 17.23 178.73 17.23C177.94 17.23 177.9 17.23 177.67 17.69L174.49 23.38H174.41L171.94 18C174.484 17.0931 177.159 16.6067 179.86 16.56C182.49 16.56 184.53 17.01 185.95 18.3C187.2 19.44 187.95 21.3 187.95 24.23C187.91 24.56 187.87 25.43 187.87 25.55ZM176.87 29.92C176.87 32.01 177.87 33.15 179.19 33.15C179.64 33.12 180.077 32.9838 180.465 32.7526C180.852 32.5215 181.18 32.2019 181.42 31.82L181.5 26.27C181.032 26.1175 180.542 26.0399 180.05 26.04C178 26 176.88 27.71 176.88 29.92H176.87Z" fill="#15293F"/>
<path d="M198.5 20.69C199.76 17.99 201.76 16.51 204.62 16.51C209.17 16.51 212 20.31 212 26.04C212 31.77 208.47 35.92 203.21 35.92C202.295 35.9811 201.378 35.8276 200.532 35.4717C199.687 35.1158 198.936 34.5673 198.34 33.87L192.15 35.92H192.07V11.68C192.1 11.5039 192.083 11.3229 192.02 11.1559C191.956 10.9888 191.849 10.8417 191.71 10.73L189.83 8.99997V8.90997L198.5 7.90997V20.69ZM198.5 21.18V33.45C199.119 34.0198 199.939 34.3217 200.78 34.29C203.21 34.29 205.21 32.65 205.21 26.23C205.21 21.37 203.68 19.55 201.44 19.55C200.854 19.562 200.28 19.7167 199.768 20.0007C199.256 20.2848 198.82 20.6896 198.5 21.18Z" fill="#15293F"/>
</svg>
